{
    "name": "shield-mod",
    "title": "Shield Mod (5e)",
    "description": "Just make the shield bonus work, okay?",
    "author": "Austin",
    "version": "0.1.0",
    "minimumCoreVersion": "0.6.5",
    "compatibleCoreVersion": "0.6.5",
    "url": "https://gitlab.com/austinried/shield-mod",
    "download": "https://gitlab.com/austinried/shield-mod/-/raw/master/package/shield-mod-0.1.0.zip",
    "manifest": "https://gitlab.com/austinried/shield-mod/-/raw/master/src/module.json",
    "system": "dnd5e",
    "scripts": [
        "scripts/index.js"
    ]
}
